Project 1
…
#barplot of alcohol content and international bitterness by state
#finding median values
beerbrew %>% group_by(State) %>% summarize(median(ABV, na.rm=TRUE))

## # A tibble: 51 x 2
##    State `median(ABV, na.rm = TRUE)`
##    <fct>                       <dbl>
##  1 " AK"                      0.056 
##  2 " AL"                      0.06  
##  3 " AR"                      0.052 
##  4 " AZ"                      0.055 
##  5 " CA"                      0.058 
##  6 " CO"                      0.06  
##  7 " CT"                      0.06  
##  8 " DC"                      0.0625
##  9 " DE"                      0.055 
## 10 " FL"                      0.057 
## # ... with 41 more rows
…
